id,category
832vr2539322372931238,Recreation/Pets/Dogs/Breeds/Sporting-Gundog_Group/Brittany/Rescues_and_Shelters
831vr2539322267806235,Business/Hospitality/Directories
1417712863340530,Recreation/Nudism
875vr2539322362701382,Science/Technology/Structural_Engineering/Bridge/History/Historic_Bridges/North_America
1429568119670080,Arts/Television/Stations/North_America
875vr2539322405101382,Society/Sexuality/Sex_Education/Abstinence-Only
1443715869879144,Arts/Literature/Poetry
1344483257615501,Business/Automotive/Motorcycles/Off-Road
813vr2539322348419914,Business/Agriculture_and_Forestry/Horticulture/Materials_and_Supplies/Containers
1491198064312527,Shopping/Food/Vegetarian
808vr2539322354115198,Health/Medicine/Surgery/Cosmetic_and_Plastic/Surgeons_and_Clinics/North_America
1440282863932145,Business/Employment/Job_Search
1406931947803537,Health/Alternative/Fasting_and_Cleansing/Clinics_and_Practices
878vr2539322351512363,Health/Conditions_and_Diseases/Digestive_System_Disorders/Esophagus/Reflux_Disease/Pediatric
1464696805339302,Computers/Programming/Languages/Python/Web/Web_Frameworks/Django
804vr2539322337503081,Health/Alternative/Naturopathy/Clinics_and_Practitioners/United_States
1386354181269025,Home/Cooking/Soups_and_Stews
874vr2539322256037074,Shopping/Classifieds/Automotive
1480566695452677,Society/Issues/Warfare_and_Conflict
1447918513955405,Society/Issues/Warfare_and_Conflict/Weapons/Nuclear/Proliferation/Asia/North_Korea
831vr2539322318306235,Business/Electronics_and_Electrical/Circuit_Protection
1493881248320616,Society/Holidays/Birthdays
877vr2539322275725774,Home/Do-It-Yourself/Home_Repairs
1482633687008907,Business/Telecommunications/Services/Wireless
1305543005197283,Business/Automotive/Parts_and_Accessories/Alarm_Systems
872vr2539322316415431,Shopping/Clothing
1446452002974453,Society/Issues/Violence_and_Abuse/Hazing/Fraternity_and_Sorority
873vr2539322355536270,Games/Trading_Card_Games/Dragonball_Z
814vr2539322358424513,Business/Investing/Brokerages/Full_Service
1423886348533512,Shopping/Crafts